Health Data
…
2.9 Comparison with publicly available estimates by LADs and sex

Comparison of age standardised rates with ONS data by LAD and our calculations but using weight from the European standard population. We use European standard population to compare because ASDR per LAD from ONS use this weights in their calculations.

stdr_rate ons is publised, stdr_rate_eng is calculated by us using England population weights and stdr_rate_eu is our estimates using European standard population weights. Our estimates using European standard rates compare with published ONS rates.

# A tibble: 568 × 5
   gender lad_name             stdrate_ons stdrate_eng stdrate_eu
   <chr>  <chr>                      <dbl>       <dbl>      <dbl>
 1 Males  Hartlepool                  12.5       11.0        13.1
 2 Males  Middlesbrough               14.6       13.7        16.3
 3 Males  Redcar and Cleveland        12.3        9.90       11.9
 4 Males  Stockton-on-Tees            12.7       10.3        12.3
 5 Males  Darlington                  11.4        9.14       11.0
 6 Males  County Durham               12.7        9.96       12.0
 7 Males  Northumberland              11.6        9.15       11.0
 8 Males  Newcastle upon Tyne         12.8       10.4        12.4
 9 Males  North Tyneside              12.1       10.2        12.2
10 Males  South Tyneside              14.6       11.7        14.1
# ℹ 558 more rows
…
